Session 2 – R for LEL Diss
…
Now you can practice reading data in R, counting observations and plotting using a different data set: coretta2022/glot_status.rds.

You might have noticed that the file with the data glot_status.rds is not a .csv file, but an .rds file. This is a special file format used with R.

To read an .rds file you use the readRDS() function, like so.

glot_status <- readRDS("data/coretta2022/glot_status.rds")

Don’t worry about what .rds files actually are, just that they contain data and that you can read them with readRDS()!

You should view the data now that it’s imported in R.

Here you can find a description of the columns in the glot_status data: Glottolog 4.6 data: Agglomerated Endangerment Status. The data is a list of languages of the world with their Agglomerated Endangerment Status (an index of endangerment). This information is contained in the status column.

# A tibble: 8,345 × 2
   Name                   status  
   <chr>                  <fct>   
 1 Kol (Papua New Guinea) shifting
 2 Tanahmerah             shifting
 3 Touo                   shifting
 4 Berta                  shifting
 5 Siuslaw                extinct 
 6 Jalaa                  extinct 
 7 Elseng                 shifting
 8 Taiap                  moribund
 9 Pyu                    shifting
10 Mato Grosso Arára      extinct 
# ℹ 8,335 more rows
…
